{
  "https://skydanceanimation.shotgunstudio.com/": {
    "script_name": "readyForReview_webhook",
    "api_key": "shufaarn)olv0sUhkstyugqbh"
  },
  "https://skydance.shotgunstudio.com/": {
    "script_name": "readyForReview_webhook",
    "api_key": "zrrnqwfxbonsrqcha)fRbb3os"
  },
  "https://sda-staging.shotgunstudio.com/": {
    "script_name": "readyForReview_webhook",
    "api_key": "snmeay2hkwonPpqniwgcypmc^"
  }
}